{
    "/css/core/colors/palette-noui.css": "/css/core/colors/palette-noui.css?id=c47022317e8a0afa2c6e",
    "/css/core/menu/menu-types/horizontal-menu.css": "/css/core/menu/menu-types/horizontal-menu.css?id=e137ee2c08e17c076e21",
    "/css/core/menu/menu-types/vertical-menu.css": "/css/core/menu/menu-types/vertical-menu.css?id=d282438b7e2365a1553a",
    "/css/core/menu/menu-types/vertical-overlay-menu.css": "/css/core/menu/menu-types/vertical-overlay-menu.css?id=5c3b91ff0a344c30986f",
    "/css/pages/app-chat.css": "/css/pages/app-chat.css?id=5a1a5194f6e474e98306",
    "/css/pages/app-email.css": "/css/pages/app-email.css?id=0e20a00c38cbc037e6eb",
    "/css/pages/app-file-manager.css": "/css/pages/app-file-manager.css?id=78f2491b3b20b7bd75ff",
    "/css/pages/app-invoice.css": "/css/pages/app-invoice.css?id=491e64dde9988fd34d05",
    "/css/pages/app-kanban.css": "/css/pages/app-kanban.css?id=033f76d7ec158a19ff9e",
    "/css/pages/app-todo.css": "/css/pages/app-todo.css?id=9bdedf0ae9ffd147c8b5",
    "/css/pages/authentication.css": "/css/pages/authentication.css?id=6b91e0c39a58f7955890",
    "/css/pages/chart-chartist.css": "/css/pages/chart-chartist.css?id=9a433c3a1de757461937",
    "/css/pages/coming-soon.css": "/css/pages/coming-soon.css?id=4819451bf8b12587c160",
    "/css/pages/dashboard-analytics.css": "/css/pages/dashboard-analytics.css?id=05b7e36fa45b20a535b0",
    "/css/pages/dashboard-ecommerce.css": "/css/pages/dashboard-ecommerce.css?id=ba0871d3f5554ed6845a",
    "/css/pages/faq.css": "/css/pages/faq.css?id=1eca12791637e4928959",
    "/css/pages/page-knowledge-base.css": "/css/pages/page-knowledge-base.css?id=b76a16bad1281a4eb839",
    "/css/pages/page-user-profile.css": "/css/pages/page-user-profile.css?id=6c1966463e51a6120f3e",
    "/css/pages/page-users.css": "/css/pages/page-users.css?id=947ca10d9342125122fe",
    "/css/pages/search.css": "/css/pages/search.css?id=9105bad3d7f98e2a361a",
    "/css/pages/widgets.css": "/css/pages/widgets.css?id=be9424551354d148c47f",
    "/css/plugins/animate/animate.css": "/css/plugins/animate/animate.css?id=218266f011f3bd402804",
    "/css/plugins/calendars/app-calendar.css": "/css/plugins/calendars/app-calendar.css?id=409cac492a1951b4e7ed",
    "/css/plugins/extensions/context-menu.css": "/css/plugins/extensions/context-menu.css?id=80ddfc753a79ef1cec9a",
    "/css/plugins/extensions/drag-and-drop.css": "/css/plugins/extensions/drag-and-drop.css?id=a24d76ad48ff40d0c560",
    "/css/plugins/extensions/ext-component-treeview.css": "/css/plugins/extensions/ext-component-treeview.css?id=54e51658df91f33d27c7",
    "/css/plugins/extensions/noui-slider.css": "/css/plugins/extensions/noui-slider.css?id=c51f0091109ad67a033d",
    "/css/plugins/extensions/swiper.css": "/css/plugins/extensions/swiper.css?id=699e1004e2186785cf23",
    "/css/plugins/extensions/toastr.css": "/css/plugins/extensions/toastr.css?id=0c757bdd7bcc646a7dc8",
    "/css/plugins/file-uploaders/dropzone.css": "/css/plugins/file-uploaders/dropzone.css?id=4f1d72dfed6aa0fccea7",
    "/css/plugins/forms/validation/form-validation.css": "/css/plugins/forms/validation/form-validation.css?id=a0a2a43e16b302131105",
    "/css/plugins/forms/wizard.css": "/css/plugins/forms/wizard.css?id=ad3ac0465ae52a0b2390",
    "/css/plugins/tour/tour.css": "/css/plugins/tour/tour.css?id=b7d5840ce7d2bf039a41",
    "/css/themes/dark-layout.css": "/css/themes/dark-layout.css?id=7ebbe0400bbdeb056fd0",
    "/css/themes/semi-dark-layout.css": "/css/themes/semi-dark-layout.css?id=efd20a5ddc3424c7f95c",
    "/assets/css/style-rtl.css": "/assets/css/style-rtl.css?id=19a40136efa794192fba",
    "/assets/css/style.css": "/assets/css/style.css?id=19a40136efa794192fba",
    "/css/bootstrap-extended.css": "/css/bootstrap-extended.css?id=a6ffe3796cd1a36ad90a",
    "/css/bootstrap.css": "/css/bootstrap.css?id=f9153e186a387dcfd41e",
    "/css/colors.css": "/css/colors.css?id=a8f0f726785c1829c05c",
    "/css/components.css": "/css/components.css?id=6e2a1aa98e2896c1b1a4",
    "/css/custom-rtl.css": "/css/custom-rtl.css?id=0aa0c129a334fd8125f7",
    "/js/core/app-menu.js": "/js/core/app-menu.js?id=71432e9ec89642ee5f78",
    "/js/core/app.js": "/js/core/app.js?id=c7363ebed94c3654b2a2",
    "/js/core/libraries/bootstrap.min.js": "/js/core/libraries/bootstrap.min.js?id=23ef5468fad4fb36994f",
    "/js/core/libraries/jquery.min.js": "/js/core/libraries/jquery.min.js?id=4b57cf46dc8cb95c4cca",
    "/js/scripts/cards/widgets.js": "/js/scripts/cards/widgets.js?id=da45a7ba4ff4307e2762",
    "/js/scripts/charts/chart-apex.js": "/js/scripts/charts/chart-apex.js?id=5487b5694468ba1d6340",
    "/js/scripts/charts/chart-chartist.js": "/js/scripts/charts/chart-chartist.js?id=e5a96dc64d124de4424c",
    "/js/scripts/charts/chart-chartjs.js": "/js/scripts/charts/chart-chartjs.js?id=c60441d3411cdfcff260",
    "/js/scripts/charts/gmaps/maps.js": "/js/scripts/charts/gmaps/maps.js?id=799b2e60593039388cba",
    "/js/scripts/components.js": "/js/scripts/components.js?id=ec90f0f00af88635c849",
    "/js/scripts/configs/horizontal-menu.js": "/js/scripts/configs/horizontal-menu.js?id=fb6b73d4097a41066d20",
    "/js/scripts/configs/vertical-menu-dark.js": "/js/scripts/configs/vertical-menu-dark.js?id=e73a8775092b5241a730",
    "/js/scripts/configs/vertical-menu-light.js": "/js/scripts/configs/vertical-menu-light.js?id=fb6b73d4097a41066d20",
    "/js/scripts/customizer.js": "/js/scripts/customizer.js?id=d2352b6be139c5987210",
    "/js/scripts/datatables/datatable.js": "/js/scripts/datatables/datatable.js?id=fc309b88ac409dd3f0ec",
    "/js/scripts/documentation.js": "/js/scripts/documentation.js?id=cf49105339a17f307247",
    "/js/scripts/editors/editor-quill.js": "/js/scripts/editors/editor-quill.js?id=eff66a2c69c59401d1f0",
    "/js/scripts/extensions/calendar/app-calendar.js": "/js/scripts/extensions/calendar/app-calendar.js?id=e1e405bde21370c2f724",
    "/js/scripts/extensions/calendar/calendars-data.js": "/js/scripts/extensions/calendar/calendars-data.js?id=be9b0dc4440b09d07036",
    "/js/scripts/extensions/calendar/schedules.js": "/js/scripts/extensions/calendar/schedules.js?id=354bf1b30f3c7e64382e",
    "/js/scripts/extensions/drag-drop.js": "/js/scripts/extensions/drag-drop.js?id=1454a22ada3f1f54de44",
    "/js/scripts/extensions/dropzone.js": "/js/scripts/extensions/dropzone.js?id=44b9463fc115a6db5f81",
    "/js/scripts/extensions/ext-component-block-ui.js": "/js/scripts/extensions/ext-component-block-ui.js?id=b089509570c4588c36fc",
    "/js/scripts/extensions/ext-component-media-player.js": "/js/scripts/extensions/ext-component-media-player.js?id=8c47e1bc661989e690b7",
    "/js/scripts/extensions/ext-component-miscellaneous.js": "/js/scripts/extensions/ext-component-miscellaneous.js?id=1200ecc08fc71367c88e",
    "/js/scripts/extensions/ext-component-treeview.js": "/js/scripts/extensions/ext-component-treeview.js?id=c7167128575a4b5bdccc",
    "/js/scripts/extensions/i18n.js": "/js/scripts/extensions/i18n.js?id=7dd6857ee04ce5e34d0f",
    "/js/scripts/extensions/noui-slider.js": "/js/scripts/extensions/noui-slider.js?id=5a730d0f6513938d7fa5",
    "/js/scripts/extensions/sweet-alerts.js": "/js/scripts/extensions/sweet-alerts.js?id=93c1747ed6b750ad2145",
    "/js/scripts/extensions/sweet-alerts.min.js": "/js/scripts/extensions/sweet-alerts.min.js?id=3c7001ea4c151a7d3478",
    "/js/scripts/extensions/swiper.js": "/js/scripts/extensions/swiper.js?id=1fa07654e7ad6d7b4b66",
    "/js/scripts/extensions/toastr.js": "/js/scripts/extensions/toastr.js?id=f753a088c390173570f9",
    "/js/scripts/extensions/tour.js": "/js/scripts/extensions/tour.js?id=74044b69e51c50b729ea",
    "/js/scripts/extensions/unslider.js": "/js/scripts/extensions/unslider.js?id=385b487f819c674db9f8",
    "/js/scripts/footer.js": "/js/scripts/footer.js?id=eec1c114be835df42157",
    "/js/scripts/forms/basic-inputs.js": "/js/scripts/forms/basic-inputs.js?id=f52ab73ff6cb9e89f6db",
    "/js/scripts/forms/form-repeater.js": "/js/scripts/forms/form-repeater.js?id=23ceb00c3b4568dd99c6",
    "/js/scripts/forms/form-tooltip-valid.js": "/js/scripts/forms/form-tooltip-valid.js?id=7344d5aab4280bf27b35",
    "/js/scripts/forms/number-input.js": "/js/scripts/forms/number-input.js?id=4dc08176f8ef1b918bcb",
    "/js/scripts/forms/select/form-select2.js": "/js/scripts/forms/select/form-select2.js?id=ea4bfdba50ced1170acc",
    "/js/scripts/forms/validation/form-validation.js": "/js/scripts/forms/validation/form-validation.js?id=099170e3f39fd910e5d7",
    "/js/scripts/forms/wizard-steps.js": "/js/scripts/forms/wizard-steps.js?id=3b54bf9fbceec012ccd9",
    "/js/scripts/modal/components-modal.js": "/js/scripts/modal/components-modal.js?id=8dae7d8f6803e696db7b",
    "/js/scripts/navs/navs.js": "/js/scripts/navs/navs.js?id=fe52c6d1347bdd76d6bd",
    "/js/scripts/pages/3-columns-left-sidebar.js": "/js/scripts/pages/3-columns-left-sidebar.js?id=2137a6821b14ee0eab78",
    "/js/scripts/pages/app-chat.js": "/js/scripts/pages/app-chat.js?id=9c061561983bcc21fb12",
    "/js/scripts/pages/app-email.js": "/js/scripts/pages/app-email.js?id=5434ab4c70074d737a3a",
    "/js/scripts/pages/app-file-manager.js": "/js/scripts/pages/app-file-manager.js?id=abda975c2c63e674575e",
    "/js/scripts/pages/app-invoice.js": "/js/scripts/pages/app-invoice.js?id=c585683481043d444856",
    "/js/scripts/pages/app-kanban.js": "/js/scripts/pages/app-kanban.js?id=f50fe2a75709a29a2187",
    "/js/scripts/pages/app-todo.js": "/js/scripts/pages/app-todo.js?id=3cd8ab806167ca2c6f66",
    "/js/scripts/pages/bootstrap-toast.js": "/js/scripts/pages/bootstrap-toast.js?id=f908a7c34b0c9c107b46",
    "/js/scripts/pages/coming-soon.js": "/js/scripts/pages/coming-soon.js?id=26db0d0cb83a93acc585",
    "/js/scripts/pages/content-sidebar.js": "/js/scripts/pages/content-sidebar.js?id=958282e0844eafadcbca",
    "/js/scripts/pages/dashboard-analytics.js": "/js/scripts/pages/dashboard-analytics.js?id=817dd111793d95c6969c",
    "/js/scripts/pages/dashboard-ecommerce.js": "/js/scripts/pages/dashboard-ecommerce.js?id=735a6c4e2e66b13638ae",
    "/js/scripts/pages/faq.js": "/js/scripts/pages/faq.js?id=a8943554ee9e7e940511",
    "/js/scripts/pages/page-account-settings.js": "/js/scripts/pages/page-account-settings.js?id=fb0513ddde371a9edde2",
    "/js/scripts/pages/page-knowledge-base.js": "/js/scripts/pages/page-knowledge-base.js?id=39e493f934fb20fd4ef6",
    "/js/scripts/pages/page-search.js": "/js/scripts/pages/page-search.js?id=a590c0b1b22058639acd",
    "/js/scripts/pages/page-user-profile.js": "/js/scripts/pages/page-user-profile.js?id=45589eb2abe854248870",
    "/js/scripts/pages/page-users.js": "/js/scripts/pages/page-users.js?id=cbc5a0ab9d949712b0f7",
    "/js/scripts/pages/sk-content-sidebar.js": "/js/scripts/pages/sk-content-sidebar.js?id=47c61f0f1d1755710929",
    "/js/scripts/pages/table-extended.js": "/js/scripts/pages/table-extended.js?id=2d438c90e1a717e3fb56",
    "/js/scripts/pickers/dateTime/pick-a-datetime.js": "/js/scripts/pickers/dateTime/pick-a-datetime.js?id=e894264e108c0471485e",
    "/js/scripts/popover/popover.js": "/js/scripts/popover/popover.js?id=d89ae2372ccf7d8dd63e",
    "/js/scripts/tooltip/tooltip.js": "/js/scripts/tooltip/tooltip.js?id=da8b728d7c8d88f12b64",
    "/assets/js/scripts.js": "/assets/js/scripts.js?id=a9e558a3ba07ddc8a702"
}
